30 6
data\zombie\innerleg.bmp 32 75 20 13 0
data\zombie\outerleg_foot.bmp 45 71 24 4 0
data\zombie\Zombie_main.bmp 0 0 36 38 0.005
data\zombie\innerarm.bmp 20 55 15 1 0.01
data\zombie\outerarm.bmp 38 38 14 7 -0.01
data\zombie\Zombie_cone1.bmp -3 -31 30 30 0.2
data\zombie\innerleg.bmp 32 75 20 13 0.05
data\zombie\outerleg_foot.bmp 45 71 24 4 -0.01
data\zombie\Zombie_main.bmp 0 0 36 38 0.01
data\zombie\innerarm.bmp 20 55 15 1 0.02
data\zombie\outerarm.bmp 38 38 14 7 -0.02
data\zombie\Zombie_cone1.bmp -3 -31 30 30 0.2
data\zombie\innerleg.bmp 32 75 20 13 0.1
data\zombie\outerleg_foot.bmp 45 71 24 4 -0.02
data\zombie\Zombie_main.bmp 0 0 36 38 0.015
data\zombie\innerarm.bmp 20 55 15 1 0.03
data\zombie\outerarm.bmp 38 38 14 7 -0.03
data\zombie\Zombie_cone1.bmp -3 -31 30 30 0.2
data\zombie\innerleg.bmp 32 75 20 13 0.15
data\zombie\outerleg_foot.bmp 45 71 24 4 -0.03
data\zombie\Zombie_main.bmp 0 0 36 38 0.02
data\zombie\innerarm.bmp 20 55 15 1 0.04
data\zombie\outerarm.bmp 38 38 14 7 -0.04
data\zombie\Zombie_cone1.bmp -3 -31 30 30 0.2
data\zombie\innerleg.bmp 32 75 20 13 0.2
data\zombie\outerleg_foot.bmp 45 71 24 4 -0.04
data\zombie\Zombie_main.bmp 0 0 36 38 0.025
data\zombie\innerarm.bmp 20 55 15 1 0.05
data\zombie\outerarm.bmp 38 38 14 7 -0.05
data\zombie\Zombie_cone1.bmp -3 -31 30 30 0.2
data\zombie\innerleg.bmp 32 75 20 13 0.25
data\zombie\outerleg_foot.bmp 45 71 24 4 -0.05
data\zombie\Zombie_main.bmp 0 0 36 38 0.03
data\zombie\innerarm.bmp 20 55 15 1 0.06
data\zombie\outerarm.bmp 38 38 14 7 -0.06
data\zombie\Zombie_cone1.bmp -3 -31 30 30 0.2
data\zombie\innerleg.bmp 32 75 20 13 0.3
data\zombie\outerleg_foot.bmp 45 71 24 4 -0.06
data\zombie\Zombie_main.bmp 0 0 36 38 0.035
data\zombie\innerarm.bmp 20 55 15 1 0.07
data\zombie\outerarm.bmp 38 38 14 7 -0.07
data\zombie\Zombie_cone1.bmp -3 -31 30 30 0.2
data\zombie\innerleg.bmp 32 75 20 13 0.35
data\zombie\outerleg_foot.bmp 45 71 24 4 -0.07
data\zombie\Zombie_main.bmp 0 0 36 38 0.04
data\zombie\innerarm.bmp 20 55 15 1 0.08
data\zombie\outerarm.bmp 38 38 14 7 -0.08
data\zombie\Zombie_cone1.bmp -3 -31 30 30 0.2
data\zombie\innerleg.bmp 32 75 20 13 0.4
data\zombie\outerleg_foot.bmp 45 71 24 4 -0.08
data\zombie\Zombie_main.bmp 0 0 36 38 0.045
data\zombie\innerarm.bmp 20 55 15 1 0.09
data\zombie\outerarm.bmp 38 38 14 7 -0.09
data\zombie\Zombie_cone1.bmp -3 -31 30 30 0.2
data\zombie\innerleg.bmp 32 75 20 13 0.45
data\zombie\outerleg_foot.bmp 45 71 24 4 -0.09
data\zombie\Zombie_main.bmp 0 0 36 38 0.05
data\zombie\innerarm.bmp 20 55 15 1 0.1
data\zombie\outerarm.bmp 38 38 14 7 -0.1
data\zombie\Zombie_cone1.bmp -3 -31 30 30 0.2
data\zombie\innerleg.bmp 32 75 20 13 0.5
data\zombie\outerleg_foot.bmp 45 71 24 4 -0.1
data\zombie\Zombie_main.bmp 0 0 36 38 0.055
data\zombie\innerarm.bmp 20 55 15 1 0.11
data\zombie\outerarm.bmp 38 38 14 7 -0.11
data\zombie\Zombie_cone1.bmp -3 -31 30 30 0.2
data\zombie\innerleg.bmp 32 75 20 13 0.55
data\zombie\outerleg_foot.bmp 45 71 24 4 -0.11
data\zombie\Zombie_main.bmp 0 0 36 38 0.06
data\zombie\innerarm.bmp 20 55 15 1 0.12
data\zombie\outerarm.bmp 38 38 14 7 -0.12
data\zombie\Zombie_cone1.bmp -3 -31 30 30 0.2
data\zombie\innerleg.bmp 32 75 20 13 0.6
data\zombie\outerleg_foot.bmp 45 71 24 4 -0.12
data\zombie\Zombie_main.bmp 0 0 36 38 0.065
data\zombie\innerarm.bmp 20 55 15 1 0.13
data\zombie\outerarm.bmp 38 38 14 7 -0.13
data\zombie\Zombie_cone1.bmp -3 -31 30 30 0.2
data\zombie\innerleg.bmp 32 75 20 13 0.65
data\zombie\outerleg_foot.bmp 45 71 24 4 -0.13
data\zombie\Zombie_main.bmp 0 0 36 38 0.07
data\zombie\innerarm.bmp 20 55 15 1 0.14
data\zombie\outerarm.bmp 38 38 14 7 -0.14
data\zombie\Zombie_cone1.bmp -3 -31 30 30 0.2
data\zombie\innerleg.bmp 32 75 20 13 0.7
data\zombie\outerleg_foot.bmp 45 71 24 4 -0.14
data\zombie\Zombie_main.bmp 0 0 36 38 0.075
data\zombie\innerarm.bmp 20 55 15 1 0.15
data\zombie\outerarm.bmp 38 38 14 7 -0.15
data\zombie\Zombie_cone1.bmp -3 -31 30 30 0.2
data\zombie\innerleg.bmp 32 75 20 13 0.75
data\zombie\outerleg_foot.bmp 45 71 24 4 -0.15
data\zombie\Zombie_main.bmp 0 0 36 38 0.07
data\zombie\innerarm.bmp 20 55 15 1 0.16
data\zombie\outerarm.bmp 38 38 14 7 -0.16
data\zombie\Zombie_cone1.bmp -3 -31 30 30 0.2
data\zombie\innerleg.bmp 32 75 20 13 0.7
data\zombie\outerleg_foot.bmp 45 71 24 4 -0.14
data\zombie\Zombie_main.bmp 0 0 36 38 0.065
data\zombie\innerarm.bmp 20 55 15 1 0.15
data\zombie\outerarm.bmp 38 38 14 7 -0.15
data\zombie\Zombie_cone1.bmp -3 -31 30 30 0.2
data\zombie\innerleg.bmp 32 75 20 13 0.65
data\zombie\outerleg_foot.bmp 45 71 24 4 -0.13
data\zombie\Zombie_main.bmp 0 0 36 38 0.06
data\zombie\innerarm.bmp 20 55 15 1 0.14
data\zombie\outerarm.bmp 38 38 14 7 -0.14
data\zombie\Zombie_cone1.bmp -3 -31 30 30 0.2
data\zombie\innerleg.bmp 32 75 20 13 0.6
data\zombie\outerleg_foot.bmp 45 71 24 4 -0.12
data\zombie\Zombie_main.bmp 0 0 36 38 0.055
data\zombie\innerarm.bmp 20 55 15 1 0.13
data\zombie\outerarm.bmp 38 38 14 7 -0.13
data\zombie\Zombie_cone1.bmp -3 -31 30 30 0.2
data\zombie\innerleg.bmp 32 75 20 13 0.55
data\zombie\outerleg_foot.bmp 45 71 24 4 -0.11
data\zombie\Zombie_main.bmp 0 0 36 38 0.05
data\zombie\innerarm.bmp 20 55 15 1 0.12
data\zombie\outerarm.bmp 38 38 14 7 -0.12
data\zombie\Zombie_cone1.bmp -3 -31 30 30 0.2
data\zombie\innerleg.bmp 32 75 20 13 0.5
data\zombie\outerleg_foot.bmp 45 71 24 4 -0.1
data\zombie\Zombie_main.bmp 0 0 36 38 0.045
data\zombie\innerarm.bmp 20 55 15 1 0.11
data\zombie\outerarm.bmp 38 38 14 7 -0.11
data\zombie\Zombie_cone1.bmp -3 -31 30 30 0.2
data\zombie\innerleg.bmp 32 75 20 13 0.45
data\zombie\outerleg_foot.bmp 45 71 24 4 -0.09
data\zombie\Zombie_main.bmp 0 0 36 38 0.04
data\zombie\innerarm.bmp 20 55 15 1 0.08
data\zombie\outerarm.bmp 38 38 14 7 -0.08
data\zombie\Zombie_cone1.bmp -3 -31 30 30 0.2
data\zombie\innerleg.bmp 32 75 20 13 0.4
data\zombie\outerleg_foot.bmp 45 71 24 4 -0.08
data\zombie\Zombie_main.bmp 0 0 36 38 0.035
data\zombie\innerarm.bmp 20 55 15 1 0.07
data\zombie\outerarm.bmp 38 38 14 7 -0.07
data\zombie\Zombie_cone1.bmp -3 -31 30 30 0.2
data\zombie\innerleg.bmp 32 75 20 13 0.35
data\zombie\outerleg_foot.bmp 45 71 24 4 -0.07
data\zombie\Zombie_main.bmp 0 0 36 38 0.03
data\zombie\innerarm.bmp 20 55 15 1 0.06
data\zombie\outerarm.bmp 38 38 14 7 -0.06
data\zombie\Zombie_cone1.bmp -3 -31 30 30 0.2
data\zombie\innerleg.bmp 32 75 20 13 0.3
data\zombie\outerleg_foot.bmp 45 71 24 4 -0.06
data\zombie\Zombie_main.bmp 0 0 36 38 0.025
data\zombie\innerarm.bmp 20 55 15 1 0.05
data\zombie\outerarm.bmp 38 38 14 7 -0.05
data\zombie\Zombie_cone1.bmp -3 -31 30 30 0.2
data\zombie\innerleg.bmp 32 75 20 13 0.25
data\zombie\outerleg_foot.bmp 45 71 24 4 -0.05
data\zombie\Zombie_main.bmp 0 0 36 38 0.02
data\zombie\innerarm.bmp 20 55 15 1 0.04
data\zombie\outerarm.bmp 38 38 14 7 -0.04
data\zombie\Zombie_cone1.bmp -3 -31 30 30 0.2
data\zombie\innerleg.bmp 32 75 20 13 0.2
data\zombie\outerleg_foot.bmp 45 71 24 4 -0.04
data\zombie\Zombie_main.bmp 0 0 36 38 0.015
data\zombie\innerarm.bmp 20 55 15 1 0.03
data\zombie\outerarm.bmp 38 38 14 7 -0.03
data\zombie\Zombie_cone1.bmp -3 -31 30 30 0.2
data\zombie\innerleg.bmp 32 75 20 13 0.15
data\zombie\outerleg_foot.bmp 45 71 24 4 -0.03
data\zombie\Zombie_main.bmp 0 0 36 38 0.01
data\zombie\innerarm.bmp 20 55 15 1 0.02
data\zombie\outerarm.bmp 38 38 14 7 -0.02
data\zombie\Zombie_cone1.bmp -3 -31 30 30 0.2
data\zombie\innerleg.bmp 32 75 20 13 0.1
data\zombie\outerleg_foot.bmp 45 71 24 4 -0.02
data\zombie\Zombie_main.bmp 0 0 36 38 0.01
data\zombie\innerarm.bmp 20 55 15 1 0.005
data\zombie\outerarm.bmp 38 38 14 7 -0.01
data\zombie\Zombie_cone1.bmp -3 -31 30 30 0.2
data\zombie\innerleg.bmp 32 75 20 13 0.05
data\zombie\outerleg_foot.bmp 45 71 24 4 -0.01
data\zombie\Zombie_main.bmp 0 0 36 38 0
data\zombie\innerarm.bmp 20 55 15 1 0
data\zombie\outerarm.bmp 38 38 14 7 0
data\zombie\Zombie_cone1.bmp -3 -31 30 30 0.2